Tidy the data • guppyDme
…
# including sex_stage variable and converting size into numeric
data %<>%
  mutate(SL = as.numeric(SL),
         sex_stage = score_sexst(., f_threshold = 14.00, f_unit = "SL"))
# I am here using the SL as a unit of threshold, since individuals preserved
# in formaline don't have weight information

# checking which individuals are missing a capture location
data %>% 
  filter(is.na(patchID))

## # A tibble: 47 × 22
##    processingDate captureDate markID tank    bag sex      SL weight stream
##    <date>         <date>      <fct>  <chr> <int> <fct> <dbl>  <dbl> <fct> 
##  1 2018-03-24     2018-03-22  1RX    21       NA J      18.8  0.106 TAYLOR
##  2 2018-03-24     2018-03-22  1RX    21       NA J      18.2  0.093 TAYLOR
##  3 2018-03-24     2018-03-22  1RX    21       NA M      18.7  0.096 TAYLOR
##  4 2018-03-24     2018-03-22  1RX    21       NA F      25.1  0.248 TAYLOR
##  5 2018-03-24     2018-03-22  1RX    21       NA F      25.6  0.193 TAYLOR
##  6 2018-03-24     2018-03-22  1R2K6B 21       NA F      28.0  0.382 TAYLOR
##  7 2018-03-24     2018-03-22  1RX    21       NA M      20.0  0.112 TAYLOR
##  8 2018-03-24     2018-03-22  1RX    21       NA F      14.2  0.051 TAYLOR
##  9 2018-03-24     2018-03-22  1RX    21       NA F      24.2  0.25  TAYLOR
## 10 2018-03-24     2018-03-22  1RX    21       NA F      23.5  0.256 TAYLOR
## # ℹ 37 more rows
## # ℹ 13 more variables: streamID <fct>, location <chr>, habitat <fct>,
## #   treatment <chr>, releaseDate <date>, markerID <chr>, recap <int>,
## #   formaline <int>, comments <chr>, patchID <fct>, isbabyMark <lgl>,
## #   isCohort <lgl>, sex_stage <chr>
…
